{"count":814,"next":"http://freesound.org/apiv2/search/text/?&query=hello&page=2&fields=id,name,duration,num_downloads,username,num_ratings","results":[{"id":123,"name":"hello","duration":1.43333,"username":"Robert_twent","num_downloads":1678,"num_ratings":21},{"id":449481,"name":"hello","duration":1.71209,"username":"12125065","num_downloads":674,"num_ratings":7},{"id":411184,"name":"grüzi.mp3","duration":1.84358,"username":"D3RFuX","num_downloads":271,"num_ratings":6},{"id":449500,"name":"hello","duration":3.88025,"username":"1489232","num_downloads":588,"num_ratings":10},{"id":256031,"name":"hello ","duration":4.63238,"username":"pyro13djt","num_downloads":2137,"num_ratings":11},{"id":253387,"name":"Hello?","duration":1.88188,"username":"hauntedswkids","num_downloads":3592,"num_ratings":12},{"id":468001,"name":"hello_01.mp3","duration":0.667188,"username":"121053699","num_downloads":131,"num_ratings":3},{"id":426908,"name":"Hello Male","duration":0.580499,"username":"dersuperanton","num_downloads":1879,"num_ratings":13},{"id":107932,"name":"hello_hello.wav","duration":1.161,"username":"golosiy","num_downloads":2851,"num_ratings":8},{"id":185930,"name":"3 hello","duration":5.22667,"username":"deleted_user_2833773","num_downloads":2166,"num_ratings":16},{"id":343161,"name":"hello.wav","duration":1.99669,"username":"theatertech455","num_downloads":253,"num_ratings":4},{"id":399639,"name":"Hello #3.MP3","duration":1.86882,"username":"SoundsForHim","num_downloads":224,"num_ratings":1},{"id":245050,"name":"Hello.wav","duration":3.87567,"username":"rjsaqibsheikh","num_downloads":203,"num_ratings":4},{"id":399640,"name":"Hello #2.MP3","duration":2.57413,"username":"SoundsForHim","num_downloads":91,"num_ratings":1},{"id":458002,"name":"Me Saying \"Hello\"","duration":2.50942,"username":"Fabrizio84","num_downloads":351,"num_ratings":3}],"previous":null}
